Covid-19 Severity Prediction
…
Tree-based models like XGBoost do not give parameter estimates like logistic net would, so lets move forward with just elastic net to estimate the parameters using bootstrapping. Using bootstrapping(n = 20), I can construct an interval of the coefficients for logistic net that should include what the coefficients were that went into building the model.

elastic_coefs <- read_csv("Merged_Dataframes/elastic_coefs.csv",
                            show_col_types = FALSE)

elastic_coefs <- elastic_coefs |>
  summarize(std.error = sd(estimate),
            estimate = mean(estimate),
            .by = term) |> 
  mutate(xlower = estimate - (2 * std.error),
         xupper = estimate + (2 * std.error))

elastic_coefs

# A tibble: 1,259 × 5
   term        std.error   estimate   xlower  xupper
   <chr>           <dbl>      <dbl>    <dbl>   <dbl>
 1 (Intercept)    9.34   -13.8      -32.5     4.90  
 2 gender         0.0602   0.0636    -0.0567  0.184 
 3 patient_age    0.0382   0.814      0.738   0.891 
 4 aa_5           0.0321  -0.105     -0.169  -0.0407
 5 aa_6           0.0353   0.0131    -0.0575  0.0836
 6 aa_8           0.143   -0.378     -0.665  -0.0916
 7 aa_9           0.181    0.374      0.0122  0.735 
 8 aa_12          0.0640   0.00157   -0.126   0.130 
 9 aa_13          0.0215  -0.000447  -0.0435  0.0426
10 aa_14          0.108    0.0177    -0.199   0.234 
# ℹ 1,249 more rows
…
